e_value,pred,true,not trivial,low activity,false,not found
1e-10,100.0,40.0,18.0,2.0,60.0,197.0
1e-09,110.0,46.0,20.0,2.0,64.0,191.0
1e-08,120.0,50.0,20.0,2.0,70.0,187.0
1e-07,141.0,54.0,23.0,2.0,87.0,183.0
1e-06,158.0,54.0,23.0,2.0,104.0,183.0
1e-05,177.0,55.0,23.0,2.0,122.0,182.0
0.0001,202.0,59.0,24.0,2.0,143.0,178.0
0.001,253.0,69.0,31.0,4.0,184.0,168.0
0.01,305.0,79.0,39.0,8.0,226.0,158.0
0.1,362.0,83.0,41.0,8.0,279.0,154.0
1.0,454.0,91.0,42.0,8.0,363.0,146.0
